{
	"label": "Alien RPG L'Art d'être Alien",
	"entries": [
		{
			"id": "577 APC",
			"name": "APC 577",
			"description": null
		},
		{
			"id": "Alien",
			"name": "Alien",
			"description": null
		},
		{
			"id": "Alien Nest",
			"name": "Nid d'Aliens",
			"description": null
		},
		{
			"id": "Alien Ship",
			"name": "Vaisseau Alien",
			"description": null
		},
		{
			"id": "Alien Ship Exterior",
			"name": "Extérieur Vaisseau Alien",
			"description": null
		},
		{
			"id": "Alien Species",
			"name": "Espèces étrangères",
			"description": null
		},
		{
			"id": "Ambush",
			"name": "Embuscade",
			"description": null
		},
		{
			"id": "Campaign Play",
			"name": "Campagne de jeu",
			"description": null
		},
		{
			"id": "Careers",
			"name": "Carrières",
			"description": null
		},
		{
			"id": "City of 2183",
			"name": "Ville de 2183",
			"description": null
		},
		{
			"id": "Climb",
			"name": "Escalade",
			"description": null
		},
		{
			"id": "CM-88H Bison",
			"name": "Bison CM-88H",
			"description": null
		},
		{
			"id": "CM-90S Corvus",
			"name": "Corvus CM-90S",
			"description": null
		},
		{
			"id": "Colonial Marshal",
			"name": "Marshal Colonial",
			"description": null
		},
		{
			"id": "Combat and Damage",
			"name": "Combat & Dommage",
			"description": null
		},
		{
			"id": "Company Agent",
			"name": "Agent de compagnie",
			"description": null
		},
		{
			"id": "Conestoga",
			"name": "Conestoga",
			"description": null
		},
		{
			"id": "Control Console",
			"name": "Console de contrôle",
			"description": null
		},
		{
			"id": "Crashed Alien Ship",
			"name": "Vaisseau Alien craché",
			"description": null
		},
		{
			"id": "Cryo \"Awakening\"",
			"name": "Cryo \"L'éveil\"",
			"description": null
		},
		{
			"id": "Daihotai - All Terrain",
			"name": "Daihotai - Tout terrain",
			"description": null
		},
		{
			"id": "DiagnosticsAndDisplay",
			"name": "Diagnostics & Affichage",
			"description": null
		},
		{
			"id": "Dog Catcher",
			"name": "Limier",
			"description": null
		},
		{
			"id": "Egg",
			"name": "Oeuf",
			"description": null
		},
		{
			"id": "Encounter - \"Game over man!\"",
			"name": "Rencontre - \"Game over mec !\"",
			"description": null
		},
		{
			"id": "Explosion",
			"name": "Explosion",
			"description": null
		},
		{
			"id": "Fiori",
			"name": "Fiori",
			"description": null
		},
		{
			"id": "Food and Drink",
			"name": "Boisson & Nourriture",
			"description": null
		},
		{
			"id": "Frontiers",
			"name": "Frontières",
			"description": null
		},
		{
			"id": "Frozen Waste Outpost",
			"name": "Avant-poste glaciaire",
			"description": null
		},
		{
			"id": "Gear",
			"name": "Équipement",
			"description": null
		},
		{
			"id": "Gear Tracker",
			"name": "Dispositif de traque",
			"description": null
		},
		{
			"id": "Goverment and Corporations",
			"name": "Gouvernement & Corporations",
			"description": null
		},
		{
			"id": "Hard Life in Space Ship",
			"name": "La dure vie dans l'espace",
			"description": null
		},
		{
			"id": "Harvester",
			"name": "Moissonneur",
			"description": null
		},
		{
			"id": "Head Discovery",
			"name": "Découverte de la tête",
			"description": null
		},
		{
			"id": "Investigation",
			"name": "Investigation",
			"description": null
		},
		{
			"id": "Jump",
			"name": "Saut",
			"description": null
		},
		{
			"id": "Kid",
			"name": "Enfant",
			"description": null
		},
		{
			"id": "Loader",
			"name": "Chargeur",
			"description": null
		},
		{
			"id": "Marine",
			"name": "Marine",
			"description": null
		},
		{
			"id": "Marine on Patrol",
			"name": "Marine en patrouille",
			"description": null
		},
		{
			"id": "Medic!",
			"name": "Medic!",
			"description": null
		},
		{
			"id": "Melee",
			"name": "Mêlée",
			"description": null
		},
		{
			"id": "Neomorph",
			"name": "Néomorphe",
			"description": null
		},
		{
			"id": "Novogorod Station",
			"name": "Station Novogorod",
			"description": null
		},
		{
			"id": "Officer",
			"name": "Officier",
			"description": null
		},
		{
			"id": "Outpost",
			"name": "Avant-poste",
			"description": null
		},
		{
			"id": "Pilot",
			"name": "Pilote",
			"description": null
		},
		{
			"id": "Planets",
			"name": "Planètes",
			"description": null
		},
		{
			"id": "Planetside",
			"name": "Planetside",
			"description": null
		},
		{
			"id": "Plastic Android",
			"name": "Android en plastique",
			"description": null
		},
		{
			"id": "Roughneck",
			"name": "Prolo",
			"description": null
		},
		{
			"id": "Scientist",
			"name": "Scientifique",
			"description": null
		},
		{
			"id": "Scientist at work",
			"name": "Scientifique au travail",
			"description": null
		},
		{
			"id": "Ship Corridor",
			"name": "Couloir d'un vaisseau",
			"description": null
		},
		{
			"id": "Ship Explosion",
			"name": "Explosion d'un vaisseau",
			"description": null
		},
		{
			"id": "Ship in Orbit",
			"name": "Vaisseau en Orbite",
			"description": null
		},
		{
			"id": "Skills",
			"name": "Compétences",
			"description": null
		},
		{
			"id": "Space Jockey",
			"name": "Space Jockey",
			"description": null
		},
		{
			"id": "Space Walk",
			"name": "Sortie spatiale",
			"description": null
		},
		{
			"id": "Spacestation",
			"name": "Station spatiale",
			"description": null
		},
		{
			"id": "Spacestation in Orbit",
			"name": "Station spatiale en Orbite",
			"description": null
		},
		{
			"id": "Spacestation over Planet",
			"name": "Station spatiale au-dessus de la planète",
			"description": null
		},
		{
			"id": "Speeding APC",
			"name": "Vaisseau rapide",
			"description": null
		},
		{
			"id": "Stealth",
			"name": "cache-cache",
			"description": null
		},
		{
			"id": "Systems and Planets",
			"name": "Systèmes & Planètes",
			"description": null
		},
		{
			"id": "UD4 Cheyenne",
			"name": "UD4 Cheyenne",
			"description": null
		},
		{
			"id": "UPP Patrol",
			"name": "Patrouille de l'UPP",
			"description": null
		},
		{
			"id": "Wreck",
			"name": "Naufragé",
			"description": null
		},
		{
			"id": "Xenomorph",
			"name": "Xénomorphe",
			"description": null
		},
		{
			"id": "Xenomorph Head",
			"name": "Tête Xénomorphe",
			"description": null
		}
	]
}