{
	"label": "Alien RPG Équipement",
	"mapping": {
		"commentvalue":"data.attributes.comment.value",
		"notes":"data.notes",
		"img":"img"
	},
	"entries": [
		{
			"id": "\"Bug Juice\" Protein Drink",
			"name": "\"Jus de blatte\" Boisson protéinée",
			"commentvalue": "Couramment désigné sous le nom de « jus de blatte », cette boisson protéinée, hautement calorique, est produite par de nombreux fabricants à partir de vers de farine, de cafards, de scarabées et d'autres insectes élevés dans les fermes des colonies.\nC'est un moyen bon marché et efficace de rester en vie à la Frontière.\n\nAugmente la Réserve de Nourriture et d'Eau de 1.",
			"notes": {
				"notes": "<p>Réserve d'Eau et de Nourriture +1</p>"
			},
			"img": "modules/alienrpg-fr/images/equipement/Beetlejuice.webp"
		},
		{
			"id": "\"Pups\" Mapping Device",
			"name": "Drone « K-bot » de cartographie",
			"commentvalue": "Scanne une zone par Round.\n\nParfois surnommés « louveteaux », ces engins au prix prohibitif sont utilisés depuis une bonne centaine d'années.\nLes louveteaux emploient des propulseurs antigravité limités pour traverser les terrains difficiles en suspension dans l'air.\nPendant le trajet, ces orbes métalliques scannent leur environnement à 360° au moyen de lasers précis. Ils envoient ensuite les informations spectrographiques à un appareil connecté, généralement un vaisseau ou une HoloTab au sol, ou une station de surveillance à bord d'un véhicule de commandement.\nIls peuvent aussi détecter les formes de vie, les conditions atmosphériques, les toxines et autres détails spécifiques.\nLes louveteaux justifient leur surnom par la sorte d'aboiement haut perché qu'ils émettent pendant le scan. Ils balisent ainsi une zone par Round et détectent tous les ennemis dans les zones qu'ils traversent.\n\nPortée EXTRÊME.",
			"img": "modules/alienrpg-fr/images/equipement/Pups-Mapping-Device.webp"
		},
		{
			"id": "A.P.O.L.L.O.",
			"name": "A.P.O.L.L.O.",
			"commentvalue": "Système conçu par Seegson pour concurrencer MU/TH/UR, A.P.O.L.L.O. fut développé pour coordonner les efforts des êtres synthétiques de type Lambda de Seegson et collaborer avec eux pour diriger une installation ou un vaisseau.\nLe système est à tous égards en retard sur les modèles MU/TH/UR de même génération.",
			"img": "modules/alienrpg-fr/images/equipement/Apollo.webp"
		},
		{
			"id": "AutoDoc",
			"name": "AutoDoc",
			"commentvalue": "Tout le monde ne peut pas s'offrir un médipod Pauling, mais presque chaque vaisseau, station et colonie dispose au moins d'un AutoDoc.\nSorte de Pauling du pauvre, l'AutoDoc est un appareil de traitement médical automatisé qui diagnostique et soigne les plaies et infections mineures.\nBien qu'incapable de pratiquer des opérations chirurgicales complexes, il peut remettre des os brisés.\n\nOn peut programmer l'AutoDoc au moyen d'un test de COMTECH ordinaire. Il dispose d'une compétence de SOINS MÉDICAUX de 6, mais ne peut pas forcer ses tests.",
			"img": "modules/alienrpg-fr/images/equipement/Autodoc.webp"
		},
		{
			"id": "Beer",
			"name": "Bière",
			"commentvalue": "C'est le moment de faire la java ! L'alcool demeure la méthode de prédilection, le whisky et la vodka dominant le marché. La bière de choix, à la Frontière, est l'Aspen « extraforte » d'origine de Weyland-Yutani. Elle est rallongée à l'eau et c'est de la vraie pisse d'âne, mais elle fait le taf, et ça vaut toujours mieux que cette cochonnerie de Souta Dry.\n\nChaque verre réduit votre NIVEAU DE STRESS de 1, mais vous inflige également un modificateur de -1 à toutes les compétences basées sur l'ESPRIT pendant le Quart qui suit.",
			"img": "modules/alienrpg-fr/images/equipement/beer.webp"
		},
		{
			"id": "Binoculars",
			"name": "Jumelles",
			"commentvalue": "Confère un modificateur de +2 aux tests d'OBSERVATION à LONGUE portée ou plus lors d'une observation active (ne fonctionne pas sur la vigilance passive).",
			"img": "modules/alienrpg-fr/images/equipement/Binoculars.webp"
		},
		{
			"id": "Candy Bar",
			"name": "Barre Chocolatée",
			"commentvalue": "Ces plaisirs coupables, véritables objets de luxe à la Frontière, vous donneront le petit coup de fouet glucidique qu'il vous faut.\n\nAugmente la Réserve de Nourriture de 1.\n\nCoûte entre $2-$5",
			"img": "modules/alienrpg-fr/images/equipement/Chocolate-Bar.webp"
		},
		{
			"id": "Carbonated Beverage",
			"name": "Boisson Gazeuse",
			"commentvalue": "Ces plaisirs coupables, véritables objets de luxe à la Frontière, vous donneront le petit coup de fouet glucidique qu'il vous faut.\n\nAugmente la Réserve d'Eau de 1.",
			"img": "modules/alienrpg-fr/images/equipement/Soda.webp"
		},
		{
			"id": "Coffee",
			"name": "Café",
			"commentvalue": "Le café est fourni gratuitement à l'équipage sur la plupart des vaisseaux et stations commerciaux.\nCultivé au Guatemala, sur Terre, le café Weyland- Yutani est le mieux considéré dans les territoires, et la perspective de le boire gratuitement constitue un véritable argument pour W-Y auprès de ses employés.\nQuand vous piquez du nez, une petite dose de caféine vous aide à affronter la matinée.\n\nAugmente de 1 votre NIVEAU DE STRESS, mais retarde d’un Quart les effets du manque de sommeil.\n\nCoûte entre Gratuit–$1.50/tasse.",
			"img": "modules/alienrpg-fr/images/equipement/coffee.webp"
		},
		{
			"id": "Colony Specialty Meals",
			"name": "Spécialités culinaires des colonies",
			"commentvalue": "le rata qu'on déguste sur les colonies planétaires a de bons côtés : les colons se montrent créatifs avec leurs rations pour créer de « bons petits plats ».\nCertaines colonies élèvent leur propre bétail, tandis que d'autres ont accès à une faune comestible.\nL'éventail de produits est donc vaste, des hamburgers et steaks de boeuf de Terraform 3 jusqu’au thorax de Scorpionide tanakan bouilli en passant par la salade de varech et au sushi du Monde de Bracken.\n\nAugmente de 1 votre Réserve de Nourriture et réduit de 1 votre NIVEAU DE STRESS.\n\nCoûte entre $20-$300",
			"img": "modules/alienrpg-fr/images/equipement/Colonies-Meal.webp"
		},
		{
			"id": "Computer Terminal",
			"name": "Terminal Informatique",
			"commentvalue": "Accéder et traiter les données (test de COMTECH)\n\n On appelle terminal informatique tout appareil d'une colonie, d'un vaisseau ou d'une station permettant d'accéder et de traiter des données par l'intermédiaire d'un clavier ou de commandes vocales ainsi que d'un moniteur ou hologramme.\nLes codes appropriés et le bon test de COMTECH sur un terminal peuvent vous permettre d'accéder à tout ce que sait le système MU/TH/UR ou A.P.O.L.L.O.\n\nCoût Variable.",
			"img": "modules/alienrpg-fr/images/equipement/Computer-Terminal.webp"
		},
		{
			"id": "Cutting Torch",
			"name": "Chalumeau découpeur",
			"commentvalue": "Ce chalumeau est conçu pour souder et couper le métal, mais on peut également s'en servir comme arme improvisée.\n\n Utilisé comme outil, le chalumeau découpeur confère un modificateur de +2 aux tests de MACHINES LOURDES dans les situations appropriées. \n\n Il consomme une grande quantité d'électricité ; vous devez donc effectuer un test de Réserve d'Énergie après chaque utilisation (cf. page 36).\n Sa batterie dispose d'une Réserve d'Énergie de 5 en pleine charge.",
			"img": "modules/alienrpg-fr/images/equipement/Cutting Torch.webp"
		},
		{
			"id": "Data Transmitter Cards",
			"name": "Cartes de transmission de données",
			"commentvalue": "Transfère des données audiovisuelles.\n\nles CTD sont de petites cartes transparentes de transmission de données que l'on insère dans divers appareils, comme les enregistreurs vidéo et audio du casque des combinaisons spatiales. Elles transmettent les données sans fil aux terminaux auxquels elles sont connectées.\nCes informations peuvent être analysées par un système MU/TH/UR ou A.P.O.L.L.O., ou encore affichées sur un HoloTab.",
			"img": "modules/alienrpg-fr/images/equipement/Data-transmitter-Cards.webp"
		},
		{
			"id": "Electronic Tools",
			"name": "Outils électroniques",
			"commentvalue": "Comtech +1.",
			"img": "modules/alienrpg-fr/images/equipement/Electronic-Tools.webp"
		},
		{
			"id": "Hard Liquor",
			"name": "Alcool Fort",
			"commentvalue": "C'est le moment de faire la java ! L'alcool demeure la méthode de prédilection, le whisky et la vodka dominant le marché.\n Chaque verre réduit votre NIVEAU DE STRESS de 1, mais vous inflige également un modificateur de -1 à toutes les compétences basées sur l'ESPRIT pendant le Quart qui suit.\n\nCoûte entre $10–$500/ bouteille.",
			"img": "modules/alienrpg-fr/images/equipement/flask-alcohol.webp"
		},
		{
			"id": "Head-Mounted Sight",
			"name": "Casque-viseur",
			"commentvalue": "Contrôle à distance d'une tourelle.\n\nSe synchronise avec un smartgun ou une tourelle robotisée, pour aider son porteur à verrouiller et à choisir ses cibles.",
			"img": "modules/alienrpg-fr/images/equipement/Head-Mounted-Sight.webp"
		},
		{
			"id": "Hi-beam Flashlight",
			"name": "Lampe-torche à faisceau concentré",
			"commentvalue": "Annule l'effffet de l'obscurité dans une zone.",
			"img": "modules/alienrpg-fr/images/equipement/HI-Beam-Flashlight.webp"
		},
		{
			"id": "HoloTab",
			"name": "HoloTab",
			"commentvalue": "Plateforme d'analyse stratégique.\n\nplateforme stratégique et d'analyse haut de gamme, l'HoloTab – ou table d'affichage holographique – traite les informations en direct ou enregistrées qu'on lui fournit pour générer un hologramme tridimensionnel du sujet.\n On associe généralement l'HoloTab à des cartes préexistantes ou à des TDP et des K-bots (ou « louveteaux ») de cartographie.\n Seuls les missions d'exploration scientifique, les colons, les équipes de construction et les centres tactiques militaires les mieux équipés de la Frontière disposent de cet appareil coûteux\n\n (COMMANDEMENT et OBSERVATION +2).",
			"img": "modules/alienrpg-fr/images/equipement/Holotab.webp"
		},
		{
			"id": "Hydr8tion",
			"name": "Hydr4tation",
			"commentvalue": "Solution électrolytique qui combat les effets déshydratants de l'hypersommeil (cf. page 151).\n L'Hydr4tation est l'un des rares produits pharmaceutiques de l'ère spatiale dépourvu d'effets secondaires.",
			"img": "modules/alienrpg-fr/images/equipement/Hydr8tion.webp"
		},
		{
			"id": "IFF Transponder",
			"name": "Transpondeur IFF",
			"commentvalue": "Empêche un tir ami de la part d'une tourelle automatisée.\n\ncette balise personnelle empêche les systèmes de tourelle automatique de mitrailler des cibles amies.\n Généralement implantées chirurgicalement avant une campagne, elles ne posent problème que lorsque leur système s'interrompt et quand l'ennemi met la main sur un émetteur et s'en sert pour s'infiltrer. Comment y parvient-il puisque la puce IFF est implantée sous la peau ? Vous seriez étonnés de ce qu'on peut faire avec un bon couteau et un peu d'huile de coude…",
			"img": "modules/alienrpg-fr/images/equipement/Transpondeur-IFF.webp"
		},
		{
			"id": "Key Card",
			"name": "Carte d'accès",
			"commentvalue": "Carte d'accès électronique pour déverrouiller les portes.",
			"img": "modules/alienrpg-fr/images/equipement/Carte-codee.webp"
		},
		{
			"id": "Long-Data Disc",
			"name": "Disque de données étendues",
			"commentvalue": "Jusqu'à 10 zétaoctets (Zo) de données.\n\nAprès plusieurs pertes de données consécutives à des impulsions électromagnétiques dans la première moitié du 21e siècle, on a commencé à réintroduire et renforcer les méthodes de stockage de données physiques. Les scientifiques de Weyland Corp ont fait passer la technologie des disques optiques au niveau supérieur, pour obtenir un disque de données étendues nano-optique, ou LD (pour « long-data »).\n Chaque disque contient jusqu'à 10 zétaoctets (Zo) de données. Toutes les archives des colonies et des compagnies sont sauvegardées sur ces disques en cas de nouvelle décharge électromagnétique.",
			"notes": {
				"notes": null
			},
			"img": "modules/alienrpg-fr/images/equipement/Long-data-Disc.webp"
		},
		{
			"id": "M314 Motion Tracker",
			"name": "Détecteur de mouvement M314",
			"commentvalue": "Portée LONGUE en intérieur.\n\nCet appareil utilise des ondes ultrasoniques à haute puissance pour détecter les mouvements à portée de ses capteurs (portée EXTRÊME en terrain découvert, portée LONGUE en intérieur ou terrain obstrué).\n Conçu à l'origine pour les équipes de sauveteurs recherchant des civils prisonniers d'effondrements de cavernes ou de bâtiments, le détecteur est rapidement devenu utile aux militaires affrontant des guérilleros dans des environnements extrasolaires où l'usage des infrarouges ne s'appliquait pas efficacement.\n\n Vous devez effectuer un test de Réserve d'Énergie après chaque utilisation. La batterie dispose d'une Réserve d'Énergie de 5 à pleine charge.\n\nLe détecteur repère automatiquement tout objet de bonne taille en mouvement, jusqu'à LONGUE portée (jusqu'à quatre zones de distance) en intérieur, et à portée EXTRÊME en extérieur, et vous indique la zone où il se trouve.\n Nous vous recommandons de marquer les « ping » de déplacement repérés par le détecteur au moyen de pions (ou de petits objets) sur le plan. \nNotez bien que l'appareil ne localise que les objets en déplacement.\nDétecter un ennemi au moyen d'un détecteur de mouvement ne signifie pas que vous l'avez aperçu et que vous pouvez immédiatement engager le combat : pour cela, il vous faut vous trouver dans la même zone et disposer d'une ligne de vue jusqu'à lui.\n Si l'ennemi est petit ou bien caché, Maman peut également vous demander d'effectuer un test d'OBSERVATION pour le détecter.",
			"img": "modules/alienrpg-fr/images/equipement/M314-Motion-Tracker.webp"
		},
		{
			"id": "M316 Motion Tracker",
			"name": "Détecteur de mouvement M316",
			"commentvalue": "Portée MOYENNE en intérieur.\n\nLe M314 pèche par sa taille et son poids : on ne peut pas le manipuler et tirer en même temps. Une version montée sur fusil à impulsion, le M316, est actuellement à l'essai.\n La bonne nouvelle ? L'engin est compact, léger et facile à consulter d'un coup d'oeil en pleine fusillade. Naturellement, il y a une mauvaise nouvelle… Bien que fonctionnant comme son homologue, le M316 a une portée bien plus réduite : LONGUE en extérieur, MOYENNE en intérieur. Les résultats des tests varient, mais c'est à ça que servent les bidasses : jouer la chair à canon pour que les grosses corpos trouvent le moyen d'améliorer leurs joujoux tout neufs.\n\n Réserve d'Énergie de 3 en pleine charge.\n\nLe détecteur repère automatiquement tout objet de bonne taille en mouvement, jusqu'à MOYENNE portée (jusqu'à trois zones de distance) en intérieur, et à portée LONGUE en extérieur, et vous indique la zone où il se trouve. Note that the motion tracker will only detect moving objects.\nDétecter un ennemi au moyen d'un détecteur de mouvement ne signifie pas que vous l'avez aperçu et que vous pouvez immédiatement engager le combat : pour cela, il vous faut vous trouver dans la même zone et disposer d'une ligne de vue jusqu'à lui.\n Si l'ennemi est petit ou bien caché, Maman peut également vous demander d'effectuer un test d'OBSERVATION pour le détecter.",
			"img": "modules/alienrpg-fr/images/equipement/M316-Motion-Tracker.webp"
		},
		{
			"id": "Magnetic Tape",
			"name": "Bande magnétique",
			"commentvalue": "Jusqu'à 120 téraoctets (To) de données.\n\nCette technologie qui date déjà de deux siècles s'est répandue à la Frontière parce que les cassettes à bande magnétique sont jetables et bon marché.\n Grâce à la technologie de la pulvérisation cathodique, ces cassettes contiennent 60, 90 ou 120 téraoctets (To) de données chacune.\n Bien que vulnérables à une impulsion électromagnétique, elles présentent un atout particulier : les machines archaïques qui les utilisent ne produisent pas d'ondes faciles à détecter. La plupart des capteurs de sécurité sont conçus pour détecter des appareils électroniques plus sophistiqués.\n Tous ces facteurs combinés ont relancé la mode des bandes magnétiques durant les cinquante dernières années.",
			"img": "modules/alienrpg-fr/images/equipement/magnetic-Tape.webp"
		},
		{
			"id": "Maintenance Jack",
			"name": "Cric d’entretien",
			"commentvalue": "Cet outil répandu sert à ouvrir des sas déconnectés des sources d'énergie et à rediriger l'alimentation depuis ou vers les relais électriques.\n\n Confère un modificateur de +1 aux tests de MACHINES LOURDES dans les situations appropriées.",
			"img": "modules/alienrpg-fr/images/equipement/Maintenace-Jack.webp"
		},
		{
			"id": "Modular Computing Device",
			"name": "Appareil de traitement modulaire",
			"commentvalue": "Projecteur holographique audiovisuel complet.\n\nPerfectionné et produit par Weyland Corp au 21e siècle, l'ATM est un projecteur holographique audiovisuel complet.\n Cet appareil hi-tech peut générer un hologramme complètement réaliste sur une zone de 6 m x 6 m.",
			"img": "modules/alienrpg-fr/images/equipement/Modular-Computing-Device.webp"
		},
		{
			"id": "MU/TH/UR 6000",
			"name": "MU/TH/UR 6000",
			"commentvalue": "La plupart des vaisseaux, des stations spatiales et des complexes militaires sont dirigés par un système informatique complexe appelé MU/TH/UR.\nDéveloppé à l'origine par Weyland Corporation à la fin du 21e siècle, le système MU/ TH/UR est vite devenu un standard dans la gestion des systèmes automatisés et usines complexes. La situation n'a guère changé en un siècle.\nAffectueusement surnommé « Maman » par les équipages qui l'utilisent, le système a accueilli divers niveaux d'I.A. sur plusieurs modèles au fil des décennies. Bien que les séries MU/TH/UR 1000 et 9000 soient des modèles assez sophistiqués pour développer une personnalité rudimentaire au fil du temps, la plupart des appareils militaires, des cargos et des vaisseaux utilitaires sont équipés de nos jours des ordinateurs des séries 5000 à 8000. Ces machines peuvent communiquer par le système d'intercom du vaisseau, mais on ne peut accéder à la plupart que par l'interface centrale.\nLa carte et le code nécessaires pour entrer dans cette salle blanche, isolée de toute perturbation statique, ne sont confiés qu'au commandant de bord. C'est là que le capitaine reçoit des instructions et des ordres de la compagnie ou du gouvernement colonial qu'il est le seul à pouvoir consulter.\nL'interface centrale permet également au commandant de programmer des commandes et de se substituer aux routines automatisées de « Maman ».",
			"img": "modules/alienrpg-fr/images/equipement/Mother.webp"
		},
		{
			"id": "MU/TH/UR 6500",
			"name": "MU/TH/UR 6500",
			"commentvalue": "La plupart des vaisseaux, des stations spatiales et des complexes militaires sont dirigés par un système informatique complexe appelé MU/TH/UR.\nDéveloppé à l'origine par Weyland Corporation à la fin du 21e siècle, le système MU/ TH/UR est vite devenu un standard dans la gestion des systèmes automatisés et usines complexes. La situation n'a guère changé en un siècle.\nAffectueusement surnommé « Maman » par les équipages qui l'utilisent, le système a accueilli divers niveaux d'I.A. sur plusieurs modèles au fil des décennies. Bien que les séries MU/TH/UR 1000 et 9000 soient des modèles assez sophistiqués pour développer une personnalité rudimentaire au fil du temps, la plupart des appareils militaires, des cargos et des vaisseaux utilitaires sont équipés de nos jours des ordinateurs des séries 5000 à 8000. Ces machines peuvent communiquer par le système d'intercom du vaisseau, mais on ne peut accéder à la plupart que par l'interface centrale.\nLa carte et le code nécessaires pour entrer dans cette salle blanche, isolée de toute perturbation statique, ne sont confiés qu'au commandant de bord. C'est là que le capitaine reçoit des instructions et des ordres de la compagnie ou du gouvernement colonial qu'il est le seul à pouvoir consulter.\nL'interface centrale permet également au commandant de programmer des commandes et de se substituer aux routines automatisées de « Maman ».",
			"img": "modules/alienrpg-fr/images/equipement/Mother.webp"
		},
		{
			"id": "MU/TH/UR 7000",
			"name": "MU/TH/UR 7000",
			"commentvalue": "La plupart des vaisseaux, des stations spatiales et des complexes militaires sont dirigés par un système informatique complexe appelé MU/TH/UR.\nDéveloppé à l'origine par Weyland Corporation à la fin du 21e siècle, le système MU/ TH/UR est vite devenu un standard dans la gestion des systèmes automatisés et usines complexes. La situation n'a guère changé en un siècle.\nAffectueusement surnommé « Maman » par les équipages qui l'utilisent, le système a accueilli divers niveaux d'I.A. sur plusieurs modèles au fil des décennies. Bien que les séries MU/TH/UR 1000 et 9000 soient des modèles assez sophistiqués pour développer une personnalité rudimentaire au fil du temps, la plupart des appareils militaires, des cargos et des vaisseaux utilitaires sont équipés de nos jours des ordinateurs des séries 5000 à 8000. Ces machines peuvent communiquer par le système d'intercom du vaisseau, mais on ne peut accéder à la plupart que par l'interface centrale.\nLa carte et le code nécessaires pour entrer dans cette salle blanche, isolée de toute perturbation statique, ne sont confiés qu'au commandant de bord. C'est là que le capitaine reçoit des instructions et des ordres de la compagnie ou du gouvernement colonial qu'il est le seul à pouvoir consulter.\nL'interface centrale permet également au commandant de programmer des commandes et de se substituer aux routines automatisées de « Maman ».",
			"img": "modules/alienrpg-fr/images/equipement/Mother.webp"
		},
		{
			"id": "MU/TH/UR 9000",
			"name": "MU/TH/UR 9000",
			"commentvalue": "La plupart des vaisseaux, des stations spatiales et des complexes militaires sont dirigés par un système informatique complexe appelé MU/TH/UR.\nDéveloppé à l'origine par Weyland Corporation à la fin du 21e siècle, le système MU/ TH/UR est vite devenu un standard dans la gestion des systèmes automatisés et usines complexes. La situation n'a guère changé en un siècle.\nAffectueusement surnommé « Maman » par les équipages qui l'utilisent, le système a accueilli divers niveaux d'I.A. sur plusieurs modèles au fil des décennies. Bien que les séries MU/TH/UR 1000 et 9000 soient des modèles assez sophistiqués pour développer une personnalité rudimentaire au fil du temps, la plupart des appareils militaires, des cargos et des vaisseaux utilitaires sont équipés de nos jours des ordinateurs des séries 5000 à 8000. Ces machines peuvent communiquer par le système d'intercom du vaisseau, mais on ne peut accéder à la plupart que par l'interface centrale.\nLa carte et le code nécessaires pour entrer dans cette salle blanche, isolée de toute perturbation statique, ne sont confiés qu'au commandant de bord. C'est là que le capitaine reçoit des instructions et des ordres de la compagnie ou du gouvernement colonial qu'il est le seul à pouvoir consulter.\nL'interface centrale permet également au commandant de programmer des commandes et de se substituer aux routines automatisées de « Maman ».",
			"img": "modules/alienrpg-fr/images/equipement/Mother.webp"
		},
		{
			"id": "Naproleve",
			"name": "Naproleve",
			"commentvalue": "Réduit le NIVEAU DE STRESS à 0. \n(Réduit le NIVEAU DE STRESS à 0 sur la feuille de personnage quand activé)\n\nAntalgique à injecter soulageant automatiquement douleurs, tiraillements et irritations.\nRecommandé lors de toute césarienne effectuée en amateur sur soi-même pour donner naissance à une de ces bestioles extraterrestres qui vous sortent du bide. Réduit immédiatement le NIVEAU DE STRESS du patient à zéro.\nAttention : la surdose de Naproleve provoque un effet euphorisant. Évitez de conduire après une césarienne en free-style.\n\nChaque dose prise après la première lors d'un même Quart inflige un modificateur de -1 à tous les tests de compétence basés sur l'AGILITÉ jusqu'à la fin du Quart en cours.",
			"img": "modules/alienrpg-fr/images/equipement/Naproleve.webp"
		},
		{
			"id": "Neuro Visor",
			"name": "Neurovisière",
			"commentvalue": "Surveille un patient en hypersommeil.\n\nUne neurovisière est un casque doté d'une visière pourvue d'un ATH qui permet à son porteur d'observer et d'interagir avec le subconscient et les rêves d'un sujet en stase.\nUn utilisateur compétent peut également (au moyen d'un test de COMTECH) utiliser la neurovisière pour communiquer avec le sujet en hypersommeil, voire manipuler ses rêves.\nAlors la prochaine fois que vous entrez en hypersommeil, pas de rêves salaces : si ça se trouve, votre superviseur vous tient à l'oeil.",
			"img": "modules/alienrpg-fr/images/equipement/Neuro-Visor.webp"
		},
		{
			"id": "Neversleep Pills",
			"name": "Pilules antisommeil",
			"commentvalue": "NIVEAU DE STRESS +1 par dose. \n\nAvec ce supplément alimentaire à effet rapide, l'heure d'aller au lit recule considérablement.\nUn abus peut toutefois provoquer une crise cardiaque.\n\nChaque dose accroît votre NIVEAU DE STRESS de 1 point, mais élimine le besoin de dormir pendant une journée, durant laquelle vous ne pouvez toutefois pas soulager votre stress",
			"img": "modules/alienrpg-fr/images/equipement/Neversleep-Pills.webp"
		},
		{
			"id": "Optical Scope",
			"name": "Lunette optique",
			"commentvalue": "Portée augmentée d'un cran.\n\nCes accessoires existent sous diverses formes, jusqu'aux lunettes guidées par laser.\nElles augmentent d'un cran la portée d'un pistolet ou d'un fusil (de MOYENNE à LONGUE ou de LONGUE à EXTRÊME), mais ne peuvent servir qu’en visant.\nObjet minuscule.",
			"img": "modules/alienrpg-fr/images/equipement/Optical-Scope.webp"
		},
		{
			"id": "Pauling MedPod",
			"name": "Médipod Pauling",
			"commentvalue": "Quitte à vous trouver aux portes de la mort, arrangez-vous pour vous trouver aussi à côté d'un Pauling.\nProdige de la médecine spatiale, le médipod Pauling est un scanner médical autonome couplé à une unité chirurgicale capable d'effectuer des opérations aussi complexes qu'un pontage. Il peut diagnostiquer et traiter les infections au moyen d'injections d'antibiotiques concentrés, soigner des plaies élémentaires et mener à bien des opérations chirurgicales préprogrammées comme une appendicectomie, une ablation par laparoscopie ou même une césarienne.\nLe médipod Pauling a connu diverses variantes, le dernier modèle étant le 1080i. Bien que d'un coût prohibitif, il se révèle bien plus prolifique que son prédécesseur, le 720i.\nTous les modèles de Pauling comprennent un plan de travail hermétique, des sangles confortables pour les bras et les jambes, un scalpel laser, des bras chirurgicaux robotiques informatisés, un pulvérisateur d'anesthésiant et des capteurs de signes vitaux, le tout monté sur un socle de titane ajustable.\n\nLe médipod peut être programmé grâce à un simple test de COMTECH (+2) et dispose de la compétence SOINS MÉDICAUX au niveau 10 (on effectue le test pour la compétence, sans attribut), mais ne peut pas forcer ses tests.",
			"img": "modules/alienrpg-fr/images/equipement/Pauling-MedPod.webp"
		},
		{
			"id": "Personal Data Transmitter",
			"name": "Transmetteur de données personnel",
			"commentvalue": "Localise le porteur et mesure ses signes vitaux.\n\nCes « TDP » transmettent les coordonnées du porteur et surveillent ses signes vitaux.\nLa plupart des mondes de la Frontière sponsorisés par des compagnies équipent leurs colons de TDP afin de suivre leur évolution en environnement hostile.\nLes TDP peuvent être implantés par chirurgie, intégrés à une armure ou une combinaison pressurisée, ou bien encore portés comme accessoires.",
			"img": "modules/alienrpg-fr/images/equipement/Personal-Data-Transmitter.webp"
		},
		{
			"id": "Personal Medkit",
			"name": "Médikit personnel",
			"commentvalue": "Un médikit personnel contient tout le nécessaire pour arrêter une hémorragie ou pour désinfecter et cautériser une plaie, ainsi que des bandages Pharmax pour la couvrir et une seringue de stimulant pour vous maintenir sur pied.\nIl ne s’agit pas d’une solution permanente, mais plutôt de l'équivalent d'un sparadrap pour éviter à vos tripes de prendre l'air le temps que vous rejoigniez un AutoDoc.\n\nConfère un modificateur de +2 aux tests de SOINS MÉDICAUX, mais ne peut être utilisé qu'une fois.",
			"img": "modules/alienrpg-fr/images/equipement/Personal-Medkit.webp"
		},
		{
			"id": "PR-PUT Uplink Terminal",
			"name": "Terminal en liaison montante PR-PUT",
			"commentvalue": "Contrôle à distance des vaisseaux (test de COMTECH).\n\nOrdinateur portable blindé et étanche de qualité militaire, doté d'un joystick de pilotage intégré.\nSi vous disposez des bonnes compétences (test de COMTECH) et des codes d'accès appropriés, vous pouvez utiliser le PR-PUT pour vous connecter à la tour d'une colonie et piloter à distance un vaisseau en orbite.",
			"img": "modules/alienrpg-fr/images/equipement/PR-PUT-Uplink-Terminal.webp"
		},
		{
			"id": "Prefab Meal",
			"name": "Insta-repas",
			"commentvalue": "Le repas standard dans l'espace est composé de rations surgelées.\nÀ bord des vaisseaux, le choix comprend des pâtes, des céréales, des légumes lyophilisés, du ragoût, du pain de viande et une sorte de biscuit rappelant le pain de maïs.\nLes grandes compagnies retirent le prix des rations du salaire de leurs employés, alors même qu'ils se trouvent dans l'espace où on n'a guère autre chose à se mettre sous la dent, le tout durant leurs heures de travail au service de la compagnie…\n\nAugmente la Réserve de Nourriture de 1",
			"img": "modules/alienrpg-fr/images/equipement/Instant-Meal.webp"
		},
		{
			"id": "Recreational Drugs",
			"name": "Drogues douces",
			"commentvalue": "De quoi se fracasser en toute sérénité.\nCannabis, tabac, certaines doses de stéroïdes, benzodiazépines et méthylènedioxyméthamphétamines sont des drogues légales prescrites par des médecins de la compagnie pour un usage récréatif.\n\nLeur prix varie, de 5 $ le paquet de cigarettes à 60 000 $ pour un kilo de benzoylecgonine.\n\nLeurs Effets et leurs prix varient.",
			"img": "modules/alienrpg-fr/images/equipement/Drugs.webp"
		},
		{
			"id": "Samani E-Series Watch",
			"name": "Montre Samani série E",
			"commentvalue": "Mesure le temps, l'oxygène et la pression (SURVIE +1).\n\nCette montre de poignet de précision peut vous donner la date et l'heure de deux lieux coloniaux synchronisés, permettant aux voyageurs spatiaux de savoir quelle heure il est chez eux lorsqu'ils voyagent dans l'espace profond.\nLe tout dernier modèle, l'E-550, comprend des capteurs d'oxygène et de pression destinés à avertir le porteur en cas de brèche dans la coque (SURVIE +1).",
			"img": "modules/alienrpg-fr/images/equipement/Samani-E-Series-Watch.webp"
		},
		{
			"id": "Seegson C-Series Magnetic Tape Recorder",
			"name": "Enregistreur de bande magnétique Seegson série C",
			"commentvalue": "Enregistrer et jouer de la musique.\n\nUn vieil enregistreur « à l'ancienne » qui sert à enregistrer ou jouer de la musique et des fichiers audio.\nParmi les modèles les plus populaires, on peut citer la ka-boombox C-24 et le « spacewalk-man » portable C-60 qui vient de sortir.\nMême en sortie extravéhiculaire, vous pouvez emmener avec vous vos airs de country blues préférés (MANIPULATION +1).\n\nCoûte entre $50 - $100.",
			"img": "modules/alienrpg-fr/images/equipement/Seegson-C-Series-MagTape-Recorder.webp"
		},
		{
			"id": "Seegson Microview-2000SE",
			"name": "Microviseur Seegson 2000 SE",
			"commentvalue": "Système de localisation.\n\nCe système de navigation utilisé dans les stations spatiales utilise les coordonnées de l'appareil à bord de la station pour déterminer que « vous êtes ici » à tout moment. Où que vous soyez.",
			"img": "modules/alienrpg-fr/images/equipement/Seegson-Microview-2000SE.webp"
		},
		{
			"id": "Seegson P-DAT",
			"name": "P-DAT Seegson",
			"commentvalue": "Coordonne les infos pour les équipes de terrain.\n\nTablette de données personnelles, la P-DAT peut se synchroniser avec des appareils de cartographie spectrographiques, des PDT et des caméras de casque pour coordonner une équipe sur le terrain.",
			"img": "modules/alienrpg-fr/images/equipement/Seegson-P-DAT.webp"
		},
		{
			"id": "Seegson System Diagnostic Device",
			"name": "Appareil de diagnostic Seegson System",
			"commentvalue": "Diagnostique les dysfonctionnements informatiques.\n\nL'ADSS sert à diagnostiquer les ordinateurs et les systèmes mécaniques à bord des stations spatiales et des vaisseaux.\nUn bon ingénieur sait s’en servir pour pirater les portes et les terminaux informatiques… mais on ne vous a rien dit, motus ! (COMTECH +2)",
			"img": "modules/alienrpg-fr/images/equipement/Seegson-System-Diagnostic-Device2.webp"
		},
		{
			"id": "Surgical Kit",
			"name": "Nécessaire chirurgical",
			"commentvalue": "Selon qu'ils sont maniés par un chirurgien ou un tueur, ces instruments inquiétants peuvent vous sauver la vie ou vous l'ôter.\nConçus pour prodiguer des soins, ils font d'excellentes armes tranchantes improvisées.\n\nConfère un modificateur de +1 aux SOINS MÉDICAUX pour empêcher la mort après une blessure critique fatale (cf. page 99).\nDégâts de base de 2 quand on s'en sert comme arme.\n\nCoûte entre $25 - $200.",
			"img": "modules/alienrpg-fr/images/equipement/Surgical-Kit.webp"
		},
		{
			"id": "UPP Comm Unit",
			"name": "Transmetteur UPP",
			"commentvalue": "Transmetteur militaire UPP.",
			"img": "modules/alienrpg-fr/images/equipement/Personal-Data-Transmitter2.webp"
		},
		{
			"id": "Watatsumi DV-303 Bolt Gun",
			"name": "Bolt Gun Watatsumi DV-303",
			"commentvalue": "Le DV-303 est un outil de chantier projetant des munitions expansives qui permettent d'effectuer des réparations de coque en urgence.\nRelié à une génératrice portable, il peut tenir lieu de fusil improvisé, mais ne contient qu'un seul projectile lourd.\nLes rebelles de la Frontière s'en servaient ainsi au début des années 2100.\nIl faut recharger cette arme (action lente) après chaque tir. \n\nUtilisé comme outil, le bolt gun confère un modificateur de +2 aux tests de MACHINES LOURDES dans les situations appropriées.",
			"img": "modules/alienrpg-fr/images/equipement/Bolt-Gun-Watatsumi-DV-303.webp"
		},
		{
			"id": "Water Bottle",
			"name": "Bouteille d'eau",
			"commentvalue": "L'eau fournie à bord des vaisseaux des compagnies (2 $) est rationnée, trouble et recyclée.Malgré son goût métallique, elle fait le taf.\nLes bouteilles d'eau purifiée (10 $) constituent un luxe sur certains mondes, et peuvent se refourguer à 100 $ pièce sur les cailloux perdus dans l'espace.\n\nAugmente la Réserve d'Eau de 1\n\nCoûte entre $2-$100",
			"img": "modules/alienrpg-fr/images/equipement/water.webp"
		},
		{
			"id": "X-drugs",
			"name": "Drogues X",
			"commentvalue": "Il existe des drogues plus extrêmes, que la plupart des grandes compagnies les plus soucieuses d'éthique cherchent à éliminer de leurs colonies.\nCes « drogues X » accroissent la force, l'endurance et l'acuité des perceptions, mais un usage prolongé provoque de graves effets secondaires : hallucinations, crises, psychoses, crise cardiaque, etc.\nLe Corps des Marines expérimenterait des stimulants X puissants auprès de ses soldats, et certaines compagnies peu scrupuleuses distribueraient des substances de ce genre à leurs ouvriers afin d'accroître la productivité.\n\nL'effet et le prix varient selon les substances.",
			"img": "modules/alienrpg-fr/images/equipement/Drogue-X.webp"
		}
	]
}