{
	"label": "Alien RPG Systèmes",

		"mapping": {
			"commonnamevalue":"data.header.commonName.value",
			"systemvalue":"data.header.system.value",
			"sectorvalue":"data.header.sector.value",
			"affiliationvalue":"data.details.affiliation.value",
			"affiliationlabel":"data.details.affiliation.label",
			"classificationvalue":"data.details.classification.value",
			"classificationlabel":"data.details.classification.label",
			"climatevalue":"data.details.climate.value",
			"climatelabel":"data.details.climate.label",
			"meanTemperaturevalue":"data.details.meanTemperature.value",
			"meanTemperaturelabel":"data.details.meanTemperature.label",
			"terrainevalue":"data.details.terrain.value",
			"terrainlabel":"data.details.terrain.label",
			"coloniesvalue":"data.details.colonies.value",
			"colonieslabel":"data.details.colonies.label",
			"keyResourcesvalue":"data.details.keyResources.value",
			"keyResourceslabel":"data.details.keyResources.label",
			"description":"data.misc.comment.value"
		},
	"entries": [
		{
			"id": "17 Phei Phei E",
			"name": "17 Phei Phei E",
			"description": "17 Phei Phei n'est pas un corps céleste particulièrement fascinant, au contraire. Le planétoïde tourne trop lentement, et il est trop petit pour avoir capturé sa propre atmosphère. Le seul détail notable du système réside dans la présence du poste d'écoute et de surveillance Znoy (« chaleur » en russe). Znoy n'est qu'un poste de ce genre parmi tant d'autres, tous reliés par une grille de satellites senseurs qui enregistrent la moindre incursion à la frontière de l'UPP. Malheureusement, les senseurs en question, rudimentaires au mieux, empêchent souvent le personnel de l'avant-poste de déterminer s'il a affaire à une flotte d'envahisseurs ou si la grille a juste détecté une comète en vadrouille, voire des débris stellaires. Les nouveaux arrivants se précipitent pour alerter le commandement des FOS de l'UPP au moindre contact, tandis que les vétérans connaissent la musique.\n\nL’avant-poste Znoy est en grande partie souterrain, enfoncé dans la roche comme un pieu géant. Le jour, il déploie un bouclier solaire pour se protéger du rayonnement direct et recharger ses batteries solaires. Un « jour » de 17 Phei Phei dure près de deux mois terrestres, tandis que la « nuit » se limite à environ 28 jours de temps terrien. Les vaisseaux de ravitaillement ne peuvent approcher que lorsque l'avant-poste se trouve côté nuit, le planétoïde les protégeant alors de la chaleur extrême dégagée par le soleil.\n\nÊtre affecté à Znoy est considéré comme une punition. L'avant-poste est en sous-effectif et mal équipé pour affronter ne serait-ce qu'une improbable invasion arrivant par cette zone. Bien qu'il dispose d'une batterie de missiles nucléaires répartis dans tout le système, le complexe lui-même n'est pourvu que de deux navettes de largage et de quatre véhicules sur chenilles à bouclier antichaleur pour les opérations en surface. Et pour ne rien arranger, Znoy est l'installation militaire de l'UPP la plus proche de Zeta Reticuli ; le Commandement Allié des Amériques- Unies enquête d'ailleurs sur la possibilité que la base ait été à l'origine d'une frappe contre Hadley’s Hope. Si cette frappe a bel et bien eu lieu, le CAAU la croit originaire de Znoy.",
			"commonnamevalue": "Avant-poste Znoy",
			"systemvalue": "17 Phei Phei",
			"sectorvalue": "Bao Sau",
			"affiliationvalue": "UPP",
			"affiliationlabel": "Affiliation",
			"classificationvalue": "Planétoïde terrestre",
			"classificationlabel": "Classification",
			"climatevalue": "Pas d'atmosphère",
			"climatelabel": "Climat",
			"meanTemperaturevalue": "-173°C la nuit à 427°C le jour",
			"meanTemperaturelabel": "Température moyenne",
			"terrainevalue": "Rocheux, stérile et grêlé de cratères",
			"terrainlabel": "Terrain",
			"coloniesvalue": "Aucune, avant-poste de surveillance militaire",
			"colonieslabel": "Colonies",
			"keyResourcesvalue": "Métaux lourds dans la ceinture d'astéroïdes",
			"keyResourceslabel": "Ressources"
		},
		{
			"id": "8 Eta Boötis A",
			"name": "8 Eta Boötis A",
			"description": "Colonie indépendante, 8 Eta Boötis A III se situe à la frontière entre UPP et AU.\nLorsque l'UPP appuya un coup d'État deux décennies plus tôt, les AU envoyèrent les Marines Coloniaux en soutien de l'ancien régime. Pris entre deux feux, bien des colons s'armèrent pour se défendre contre les deux forces adverses, et l'île principale de Tientsin se divisa en plusieurs factions en guerre. Le conflit lui-même ne connut jamais de résolution.\nLes AU et l'UPP finirent par retirer leurs forces, laissant les colons se débrouiller seuls. Privée du soutien des deux camps, la colonie sombra dans le chaos. Les frappes nucléaires ravagèrent l'archipel riche en ressources de la planète, compliquant les opérations d'extraction minière.\nCes dernières années, Weyland-Yutani a offert une aide humanitaire à la colonie Tientsin sous forme d'anciens modèles d'usines de traitement atmosphérique, mais le gouvernement actuel a rejeté cette proposition.\nNombre d'officiers vétérans des Marines Coloniaux ont servi dans la campagne de Tientsin.",
			"commonnamevalue": "Colonie Tientsin",
			"systemvalue": "8 ETA Boötis",
			"sectorvalue": "Borodino",
			"affiliationvalue": "Indépendant",
			"affiliationlabel": "Affiliation",
			"classificationvalue": "Planétoïde terrestre",
			"classificationlabel": "Classification",
			"climatevalue": "Atmosphère respirable, chaud et humide, pluies torrentielles",
			"climatelabel": "Climat",
			"meanTemperaturevalue": "31°C",
			"meanTemperaturelabel": "Température moyenne",
			"terrainevalue": "Archipels couverts de jungles épaisses, zones humides et profondes mers alcalines",
			"terrainlabel": "Terrain",
			"coloniesvalue": "Colonie Tientsin, plusieurs groupements indépendants",
			"colonieslabel": "Colonies",
			"keyResourcesvalue": "Bauxite, chromate, prométhium, yttrium, manganèse et or",
			"keyResourceslabel": "Ressources"
		},
		{
			"id": "AG-4550.02",
			"name": "AG-4550.02",
			"description": "C'est dans la colonie Alexandria, un monde ayant bénéficié d'un grand développement, d'une forte industrialisation et d'une population en pleine expansion, que se retirent les cadres et que les grandes compagnies cachent leurs profits loin des yeux du gouvernement.\nLa planète présentant un climat chaud et sec, avec quelques vastes étendues d'eau, les principaux foyers de population se situent près des pôles et le long des côtes. Des usines de traitement atmosphérique réparties sur toute la surface et datant de l'ère de Weyland entretiennent des conditions de vie presque idéales, tandis qu'un système d'irrigation avancé, associé à des programmes d'agriculture dédiés, a permis de s'affranchir presque totalement du recours aux importations alimentaires.\nMonde presque autarcique, Alexandria est également la capitale des Colonies Indépendantes du Noyau. C'est de là que le Consortium Spatial Central contrôle les CIN, dans une sorte de république démocratique composée de représentants des grandes compagnies dont les intérêts dépendent du bien être des CIN.",
			"commonnamevalue": "Colonie Alexandria",
			"systemvalue": "AG-4550",
			"sectorvalue": "Nouvel Éden",
			"affiliationvalue": "Colonies Indépendantes du Noyau, Consortium Spatial Central, Weyland- Yutani, Seegson et d'autres grandes compagnies et institutions bancaires",
			"affiliationlabel": "Affiliation",
			"classificationvalue": "Planétoïde terrestre",
			"classificationlabel": "Classification",
			"climatevalue": "Atmosphère respirable, climat chaud et sec, terraformée",
			"climatelabel": "Climat",
			"meanTemperaturevalue": "38°C sur l'ensemble de la planète, 30°C aux pôles",
			"meanTemperaturelabel": "Température moyenne",
			"terrainevalue": "Désert comprenant de vastes étendues d'eau",
			"terrainlabel": "Terrain",
			"coloniesvalue": "Une, comprenant plusieurs communautés côtières et polaires",
			"colonieslabel": "Colonies",
			"keyResourcesvalue": "Agriculture, eau, réserves financières, technologie",
			"keyResourceslabel": "Ressources"
		},
		{
			"id": "ALPHA CAELI VB-H",
			"name": "ALPHA CAELI VB-H",
			"description": "Le terme « Solomons » désigne sept des huit lunes (désignées par les lettres b à h) orbitant autour de la géante gazeuse Alpha Caeli V.\nCes lunes colonisées sont riches en ressources minérales, et constituent l'une des sources principales des minerais nécessaires au voyage spatial.\nOn trouve ici plusieurs colonies d'extraction minière, ainsi qu'une garnison de Marines Coloniaux sur la lune Alpha Caeli Vg.\nLes Solomons abritent le plus grand réseau de batteries solaires orbitales jamais conçu.\nPendant plusieurs décennies, les Solomons marquèrent l'ultime limite de l'expansion humaine dans l'inconnu. Nombre des premières expéditions d'exploration poussant au-delà d'Alpha Caeli disparurent, conduisant certains scientifiques à imaginer que les zones irradiées de l'espace profond seraient mortelles pour les humains.\nToutefois, dans les vingt dernières années, les AU ont poussé vers la Bordure dans cette région et ont commencé à y installer des colonies.",
			"commonnamevalue": "Les Solomons",
			"systemvalue": "Alpha Caeli V",
			"sectorvalue": "Frontière",
			"affiliationvalue": "Diverses grandes compagnies, Amériques-Unies",
			"affiliationlabel": "Affiliation",
			"classificationvalue": "Géante gazeuse jovienne et système de huit lunes",
			"classificationlabel": "Classification",
			"climatevalue": "Variable, des dômes pressurisés au climat contrôlé jusqu'aux atmosphères terraformées froides",
			"climatelabel": "Climat",
			"meanTemperaturevalue": "Variable",
			"meanTemperaturelabel": "Température moyenne",
			"terrainevalue": "n/a",
			"terrainlabel": "Terrain",
			"coloniesvalue": "Nombreuses, y compris des garnisons de l’USCMC",
			"colonieslabel": "Colonies",
			"keyResourcesvalue": "Niobium, néodyme, chrome, hélium-3, hématite et platine",
			"keyResourceslabel": "Ressources"
		},
		{
			"id": "Calpamos",
			"name": "Calpamos",
			"description": "Vaste géante gazeuse couleur brun rouille et entourée d'un anneau, Calpamos est la quatrième planète en orbite autour de Zeta2 Reticuli.\nLa planète elle-même n'est guère remarquable, essentiellement connue pour les rumeurs tragiques liées aux incidents qui se seraient produits sur son système de lunes. Calpamos",
			"commonnamevalue": "",
			"systemvalue": "Zeta Reticuli",
			"sectorvalue": "Frontière",
			"affiliationvalue": "Weyland-Yutani, Amériques-Unies",
			"affiliationlabel": "Affiliation",
			"classificationvalue": "Géante gazeuse à anneaux",
			"classificationlabel": "Classification",
			"climatevalue": "Atmosphère d'ammoniac glacé",
			"climatelabel": "Climat",
			"meanTemperaturevalue": "–173°C",
			"meanTemperaturelabel": "Température moyenne",
			"terrainevalue": "n/a",
			"terrainlabel": "Terrain",
			"coloniesvalue": "Une colonie détruite et une station orbitant autour de la lune LV-426",
			"colonieslabel": "Colonies",
			"keyResourcesvalue": "Jamais analysées",
			"keyResourceslabel": "Ressources"
		},
		{
			"id": "Classifié",
			"name": "Classifié",
			"description": "",
			"commonnamevalue": "",
			"systemvalue": "Crestus Prime, A,B,G,D",
			"sectorvalue": "Amas de Crestus Prime",
			"affiliationvalue": "",
			"affiliationlabel": "Affiliation",
			"classificationvalue": "",
			"classificationlabel": "Classification",
			"climatevalue": "",
			"climatelabel": "Climat",
			"meanTemperaturevalue": "",
			"meanTemperaturelabel": "Température moyenne",
			"terrainevalue": "",
			"terrainlabel": "Terrain",
			"coloniesvalue": "",
			"colonieslabel": "Colonies",
			"keyResourcesvalue": "",
			"keyResourceslabel": "Ressources"
		},
		{
			"id": "DP-27",
			"name": "DP-27",
			"description": "Monde ravagé par le crime de la Bordure Extérieure, l'immense complexe carcéral de DP-27 (parfois baptisée Détention Planétaire 27 par ceux qui y ont purgé leur peine) abrite plus de 20 000 détenus.\nLa prison autorisant les visiteurs, il a fallu bâtir un centre de séjour pour les accueillir. Par la suite, plusieurs familles de visiteurs ont décidé de s'installer sur place, transformant le centre en colonie dirigée par les compagnies. Des communautés se développèrent en rayons centrés sur l'immense complexe pénitentiaire, et on finit par les désigner sous le nom de « Rayonnement ».\n\nTirant profit des ressources naturelles, Seegson bâtit plusieurs usines dans le Rayonnement pour produire des gyrocars en série. Mais à mesure que Weyland Corp développait de nouvelles technologies plus performantes, la popularité des modèles de Seegson décrut. Les usines fermèrent, la colonie périclita et les perspectives d'avenir s'assombrirent peu à peu pour une population locale appauvrie.\nLe Corps des Marines Coloniaux saisit l'occasion pour ouvrir son plus grand centre de recrutement de la Bordure Extérieure sur DP-27. L'USCMC offre aux colons la chance de découvrir la galaxie et fait des soldats l'exportation la plus importante de la planète.",
			"commonnamevalue": "Planête Carcérale 27",
			"systemvalue": "Requist ",
			"sectorvalue": "Borodino",
			"affiliationvalue": "Amériques-Unies, Seegson",
			"affiliationlabel": "Affiliation",
			"classificationvalue": "Lune terrestre",
			"classificationlabel": "Classification",
			"climatevalue": "Atmosphère respirable, ciel couvert, pluies glaciales",
			"climatelabel": "Climat",
			"meanTemperaturevalue": "5°C",
			"meanTemperaturelabel": "Température moyenne",
			"terrainevalue": "Expansion urbaine en plaine et vastes lacs",
			"terrainlabel": "Terrain",
			"coloniesvalue": "Une seule, le Rayonnement",
			"colonieslabel": "Colonies",
			"keyResourcesvalue": "Soldats, métaux terrestres rares",
			"keyResourceslabel": "Ressources"
		},
		{
			"id": "Fiorina 161",
			"name": "Fiorina 161",
			"description": "Surnommé « Fury » par les détenus aux chromosomes YY de la prison qui s’y trouvent, Fiorina 161 présente un environnement impitoyable. Les températures y varient énormément lorsque le monde parcourt son orbite autour des étoiles binaires Fiori 16a et 16b.\nFury abrite une grande variété de poissons, ainsi qu'au moins un groupe d'animaux terrestres primitifs. Malheureusement, l'espèce la plus prolifique de la planète est celle de petits arthropodes semblables aux poux, ce qui force tous les visiteurs à se raser intégralement.\nL'année de Fury 161 ne dure que dix jours et se déroule pour moitié dans les ténèbres.\nApparemment riche en platine, la planète a subi une intense exploitation minière pendant des décennies. Les estimations se révélèrent toutefois trop optimistes, et les ressources de Fury 161 s'épuisèrent bien vite.\n\nN'étant pas du genre à accepter un manque à gagner, Weyland-Yutani convertit le site en unité correctionnelle de classe C ainsi qu'en complexe de traitement des déchets toxiques et radioactifs avant de le louer à l'Empire des Trois Mondes.\nAprès avoir accueilli à son apogée des milliers de prisonniers, il ferma dans les années 2170, n'abritant plus que quelques gardiens et une grosse vingtaine de détenus pour assurer son fonctionnement.\n\nEn 2179, une capsule d'évacuation d'urgence issue du vaisseau Sulaco en perdition s'écrasa sur la planète, où elle répandit une sorte d'épidémie, que la rumeur identifie comme une souche rare de choléra.\nQuoi qu'il en soit, les prisonniers employèrent sans autorisation les stocks de quinitricétyline pour tenter d'incinérer l'agent infectieux, tuant accidentellement plusieurs des leurs.\nWeyland-Yutani dépêcha la frégate médicale Patna sur Fury 161, mais ne put sauver qu’un seul d’entre eux, Robert Morse. Ce dernier rédigea une version dramatisée de son histoire dans le livre désormais prohibé Le Monstre de l’espace, où il affirme que les détenus n'ont pas succombé à une maladie, mais à un organisme hostile embarqué à bord du VEU, qui aurait massacré presque tous les occupants du complexe avant qu'on ne l'abatte. Morse prétend également que la responsabilité du bain de sang incombe à la compagnie.\nWeyland-Yutani a récemment mis le complexe sur le marché afin de le vendre en pièces détachées, mais aucun acquéreur ne s'est fait connaître jusqu'ici.",
			"commonnamevalue": "Fury",
			"systemvalue": "Fiori 16",
			"sectorvalue": "Neroid",
			"affiliationvalue": "Weyland-Yutani, Empire des Trois Mondes",
			"affiliationlabel": "Affiliation",
			"classificationvalue": "Planétoïde terrestre",
			"classificationlabel": "Classification",
			"climatevalue": "Atmosphère toxique, constantes rafales de vent violent",
			"climatelabel": "Climat",
			"meanTemperaturevalue": "De -20°C à une température chaude de 40°C",
			"meanTemperaturelabel": "Température moyenne",
			"terrainevalue": "Déserts sans relief, océans sombres et acides",
			"terrainlabel": "Terrain",
			"coloniesvalue": "Ancienne colonie industrielle transformée en prison, désormais fermée",
			"colonieslabel": "Colonies",
			"keyResourcesvalue": "Autrefois main d'oeuvre et métaux lourds, aujourd'hui : déchets industriels et quinitricétyline",
			"keyResourceslabel": "Ressources"
		},
		{
			"id": "G-435",
			"name": "G-435",
			"description": "Monde-ruche de l'espèce xénomorphe XX121, G-435 est infestée par ces créatures.\nSur cette planète couverte de déserts et de mers tièdes, saumâtres et superficielles, le terrain est essentiellement plat, à l'exception des complexes que les Xénomorphes bâtissent pour leur tenir lieu de ruches et qui dominent le paysage.\nL'atmosphère embrumée et cauchemardesque est celle d'un crépuscule permanent.\nCe monde abrite plusieurs formes de vie indigènes qui constituent des hôtes pour le Plagiarus praepotens, y compris une espèce de reptiles volants.",
			"commonnamevalue": "ACHILLES 2.4",
			"systemvalue": " Système Achilles",
			"sectorvalue": "Secteur 117",
			"affiliationvalue": "Sans propriétaire déclaré",
			"affiliationlabel": "Affiliation",
			"classificationvalue": "Planète",
			"classificationlabel": "Classification",
			"climatevalue": "Atmosphère respirable, chaude et humide, crépuscule permanent",
			"climatelabel": "Climat",
			"meanTemperaturevalue": "40°C",
			"meanTemperaturelabel": "Température moyenne",
			"terrainevalue": "Friches, marais superficiels et mers salées, végétation minimale",
			"terrainlabel": "Terrain",
			"coloniesvalue": "Dizaines de ruches extraterrestres",
			"colonieslabel": "Colonies",
			"keyResourcesvalue": "Plagiarus praepotens",
			"keyResourceslabel": "Ressources"
		},
		{
			"id": "Gamma Leporis A3",
			"name": "Gamma Leporis A3",
			"description": "Chacune des étoiles ternaires de Gamma Leporis dispose d'un monde dans sa zone habitable, les trois ayant été colonisées à un moment ou un autre. Toutefois, une seule de ces colonies a réellement prospéré.\nSurnommée Terraform 3, la planète mentionnée ci-dessous résulte en réalité de la troisième tentative de terraformation planétaire dans le système Gamma Leporis.\nLa première, en orbite autour de Gamma Leporis B, s'acheva par une terrible catastrophe lorsqu'un astéroïde percuta la planète.\nLe cas de la deuxième est plus confus. On perdit le contact avec la colonie de terraformation financée par Seegson dans l'orbite de Gamma Leporis C en 2175. Quand la compagnie enquêta, on découvrit que tous les colons avaient disparu sans laisser de trace. La colonie elle-même était intacte, mais son usine de traitement atmosphérique s'était arrêtée. Tout le monde ou presque évite la planète et les événements qui s'y sont produits restent un mystère encore à ce jour.\nFinalement, le système Gamma Leporis est l'un des nombreux sites où l'on aurait aperçu un mystérieux « vaisseau fantôme », que l'on estime être le transport de troupes de classe Conestoga de l’USCMC, le Sulaco.\nAprès l'incident de Hadley's Hope, l'appareil éjecta ses capsules d'évacuation d'urgence aux alentours du secteur Neroid et disparut.\r\n\r\nGAMMA LEPORIS A3 : « Terraform 3 » nourrit la Frontière et fournit les meilleurs steaks de la galaxie.\nRéserve de bovins prospère, les fermes terraformées de la planète alimentent la Frontière en viande fraîche et en produits transformés à partir de cette matière première.\nLa planète subit de graves tempêtes de poussière chaque hiver, durant lesquelles les fermiers abritent leurs troupeaux sous terre.\nWeyland Corp ne s'intéresse plus beaucoup à ce monde, mais ce sont ses usines de traitement atmosphérique qui entretiennent son climat.\nDe plus en plus de ranchs de bétail de Steer City s'industrialisent, de grandes compagnies comme Lasalle Bionational investissant dans de vastes territoires pour y installer des usines automatisées de traitement de la viande.",
			"commonnamevalue": "Terraform 3",
			"systemvalue": "Gamma Leporis",
			"sectorvalue": "près du secteur Tartare",
			"affiliationvalue": "Amériques-Unies, Lasalle Bionational",
			"affiliationlabel": "Affiliation",
			"classificationvalue": "Planétoïde terrestre",
			"classificationlabel": "Classification",
			"climatevalue": "Atmosphère respirable, terraformé",
			"climatelabel": "Climat",
			"meanTemperaturevalue": "25°C",
			"meanTemperaturelabel": "Température moyenne",
			"terrainevalue": "Pâturages, lacs et exploitations agricoles",
			"terrainlabel": "Terrain",
			"coloniesvalue": "Une, Steer City",
			"colonieslabel": "Colonies",
			"keyResourcesvalue": "Agriculture",
			"keyResourceslabel": "Ressources"
		},
		{
			"id": "Gliese 326-3827b",
			"name": "Gliese 326-3827b",
			"description": "Limite des secteurs Borodino et Cerbère\r\nColonisé pour y pratiquer l'aquaculture, le Monde de Bracken est couvert d'océans peu profonds et abrite une petite population de cultivateurs de varech ainsi que les infrastructures qui leur sont nécessaires.La vie marine y abonde, dont de grands crustacés chélates.\nAlphatech dispose d'un avant-poste parmi les fermes de varech sur la planète ainsi que d'une mine sur sa lune.",
			"commonnamevalue": "Le monde de Bracken",
			"systemvalue": "Gliese 326-3827",
			"sectorvalue": "Borodino",
			"affiliationvalue": "Amériques-Unies, Alphatech Corp.",
			"affiliationlabel": "Affiliation",
			"classificationvalue": "Planète aquatique",
			"classificationlabel": "Classification",
			"climatevalue": "Atmosphère respirable, tropical à frais, ciel dégagé, tempêtes et tsunamis",
			"climatelabel": "Climat",
			"meanTemperaturevalue": "27°C",
			"meanTemperaturelabel": "Température moyenne",
			"terrainevalue": "Océans peu profonds",
			"terrainlabel": "Terrain",
			"coloniesvalue": "Deux, le Monde de Bracken et la Mine de la Lune Joilet",
			"colonieslabel": "Colonies",
			"keyResourcesvalue": "Varech, poisson et leurs produits dérivés",
			"keyResourceslabel": "Ressources"
		},
		{
			"id": "JPG-770.03",
			"name": "JPG-770.03",
			"description": "Lorsque l'UPP annexa la première Colonie Minière de Gorham au début des années 2100, l'industriel Charles Gorham en fonda simplement une autre plus avancée.\nCe monde terraformé abrite l'entreprise d'extraction minière la plus poussée du Voile Extérieur. Les puits descendent jusqu'à 42 kilomètres de profondeur sous la surface de JPG-770.03.\nCertaines régions de la planète ont été éventrées et exploitées à ciel ouvert avant qu'on ne se tourne vers des méthodes plus sûres.\nLa colonie est là pour subvenir aux besoins des mineurs, qui sont amenés ici pour des contrats de 18 mois. La Folie de Gorham emploie beaucoup d'androïdes de service pour entretenir le moral et le bien-être des mineurs.\n\nDe vastes itinéraires commerciaux relient JPG-770.03, le Noyau et la Bordure Extérieure.",
			"commonnamevalue": "La Folie de Gorham",
			"systemvalue": "JPG-770",
			"sectorvalue": "Secteur 3847",
			"affiliationvalue": "Empire des Trois Mondes, Weyland-Yutani",
			"affiliationlabel": "Affiliation",
			"classificationvalue": "Planétoïde terrestre",
			"classificationlabel": "Classification",
			"climatevalue": "Atmosphère respirable, aride, climat tempéré, terraformation",
			"climatelabel": "Climat",
			"meanTemperaturevalue": "35°C",
			"meanTemperaturelabel": "Température moyenne",
			"terrainevalue": "Plateaux rocheux creusés de profonds canyons et fissures",
			"terrainlabel": "Terrain",
			"coloniesvalue": "Une, la colonie de Gorham",
			"colonieslabel": "Colonies",
			"keyResourcesvalue": "",
			"keyResourceslabel": "Ressources"
		},
		{
			"id": "KG-348",
			"name": "KG-348",
			"description": "Vaste système à étoiles binaires situé à la pointe du secteur Tartare et dans la constellation de Reticulum, au sud, Zeta Reticuli faisait partie des régions inconnues de l'espace il y a quatre décennies à peine.\nDepuis, la Frontière des Amériques-Unies s'est étendue, englobant les étoiles binaires et les intégrant à la Branche Américaine.\nMalheureusement, le système Zeta Reticuli a été le théâtre d'une succession de tragédies et de catastrophes. C'est là que l'humanité a rencontré pour la première fois le composé A0-3959X.91-15 et le Xénomorphe XX121, perdant dans l'opération plusieurs vaisseaux ainsi que deux colonies.\r\n\r\nL'ancien site de la station Sevastopol, KG-348, est une géante gazeuse en orbite autour de l'étoile Zeta1 Reticuli.\nKG-348 présente une atmosphère rare riche en gaz métalliques, et on a longtemps envisagé d'y installer une opération d'exploitation minière atmosphérique.\nSeegson dirigea la station Sevastopol jusqu'à son accident catastrophique dans les années 2130 : la station dériva sur une orbite descendante et brûla dans l'atmosphère de la planète.\nSeegson possède toujours les droits d'exploitation de la planète, mais ne s'en est pas encore servi, et la rumeur prétend que des mineurs pirates se seraient installés sur place.",
			"commonnamevalue": "",
			"systemvalue": "Zeta Reticuli",
			"sectorvalue": "Frontière,",
			"affiliationvalue": "Amériques-Unies, Seegson",
			"affiliationlabel": "Affiliation",
			"classificationvalue": "Géante gazeuse jovienne",
			"classificationlabel": "Classification",
			"climatevalue": "Atmosphère moléculaire d'hydrogène glacé",
			"climatelabel": "Climate",
			"meanTemperaturevalue": "-145°C",
			"meanTemperaturelabel": "Température moyenne",
			"terrainevalue": "n/a",
			"terrainlabel": "Terrain",
			"coloniesvalue": "Ancien site de la station Sevastapol",
			"colonieslabel": "Colonies",
			"keyResourcesvalue": "Hélium-3, gaz métalliques rares détectés",
			"keyResourceslabel": "Ressources"
		},
		{
			"id": "KJ-331B LEBANON II",
			"name": "KJ-331B LEBANON II",
			"description": "En orbite autour de la géante gazeuse à anneaux KJ-331, Lebanon II est une lune qui pourrait basculer dans la révolution d'un instant à l'autre.\nLes allégeances changeantes de son gouvernement pendant des décennies n'ont pas aidé la colonie des Puits à prospérer, mais plutôt permis aux cadres de nombreuses compagnies de se remplir les poches.\nLes Puits se situent au-dessus d'une source d'eau fraîche contenant naturellement des électrolytes, ce qui la rend particulièrement appréciée de l'élite et très recherchée dans les systèmes du Noyau.\nDes contrats passés avec diverses compagnies permettent d'extraire massivement les ressources de la planète en eau, en fer et en uranium, qui se vendent au prix fort alors que les colons vivent dans des conditions sordides. Le gouvernement des Amériques- Unies ignorant leurs requêtes visant à obtenir de meilleures conditions de vie, un petit État sudaméricain a vu dans la détresse de la colonie des Puits un moyen de renforcer son pouvoir au sein des AU. Il a commencé à encourager les rebelles à saboter les lignes de ravitaillement tout en exigeant de meilleurs salaires et des provisions.\nLes rebelles s'enhardissent peu à peu, et ce n'est plus qu'une question de temps avant qu'on fasse intervenir les Marines Coloniaux.",
			"commonnamevalue": "",
			"systemvalue": "Khadaji ",
			"sectorvalue": "Tartare",
			"affiliationvalue": "Amériques-Unies, Lasalle Bionational, Weyland-Yutani",
			"affiliationlabel": "Affiliation",
			"classificationvalue": "Lune terrestre",
			"classificationlabel": "Classification",
			"climatevalue": "Atmosphère respirable, étés chauds et secs, hivers pluvieux",
			"climatelabel": "Climate",
			"meanTemperaturevalue": "28°C",
			"meanTemperaturelabel": "Température moyenne",
			"terrainevalue": "Réseau de rivières, de sources et de ravins quadrillant une plaine rocheuse stérile",
			"terrainlabel": "Terrain",
			"coloniesvalue": "Une seule, les Puits",
			"colonieslabel": "Colonies",
			"keyResourcesvalue": "Eau de source, fer, uranium",
			"keyResourceslabel": "Ressources"
		},
		{
			"id": "Linna 349",
			"name": "Linna 349",
			"description": "Planète membre de l'Empire des Trois Mondes, Linna 349 est un monde forestier abritant deux colonies majeures et un système d'autoroutes avancé.\nIl y a des années, une faction rebelle s'y révolta et tenta de s'emparer du pouvoir. Sans les ressources de la Bordure Extérieure pour combattre cette menace, l'Empire des Trois Mondes demanda l'aide du Commandement Allié des Amériques-Unies. Les AU intervinrent volontiers en envoyant des Marines, en échange de nouvelles tarifications et de traités d'exportation.\nLes Marines Coloniaux considérant les assauts des rebelles comme de simples désagréments, ils surnommèrent les colons rebelles les « Cancrelats ». La situation changea quand les Cancrelats commencèrent à employer des armes sophistiquées obtenues auprès d'une source non identifiée (une grande compagnie ou un ennemi politique de l'Empire des Trois Mondes) et endommagèrent gravement une frégate de l'USCMC, l’USS Sulaco, au moyen d'une frappe orbitale.\nL'USCMC répliqua en conséquence et envoya des vaisseaux, des Marines, de l'équipement lourd et des tanks reprendre la planète. Les Cancrelats furent écrasés, et l'USCMC a conservé sur place une force d'occupation et de maintien de la paix malgré les requêtes de l'Empire des Trois Mondes qui lui demandaient de libérer ce monde.\n\nLinna exporte essentiellement le bois de qualité exceptionnelle des épineux arbres Karyta.",
			"commonnamevalue": "",
			"systemvalue": "Alpha Linna- GL300",
			"sectorvalue": "Tartare",
			"affiliationvalue": "Empire des Trois Mondes, force d’occupation et de maintien de la paix des AU sur place",
			"affiliationlabel": "Affiliation",
			"classificationvalue": "Planétoïde terrestre",
			"classificationlabel": "Classification",
			"climatevalue": "Atmosphère respirable, humide",
			"climatelabel": "Climat",
			"meanTemperaturevalue": "30°C",
			"meanTemperaturelabel": "Température moyenne",
			"terrainevalue": "Forêts et lacs",
			"terrainlabel": "Terrain",
			"coloniesvalue": "Deux officielles, plus des tribus nomades",
			"colonieslabel": "Colonies",
			"keyResourcesvalue": "Bois de construction, lanthanum, lutécium et autres métaux terrestres rares",
			"keyResourceslabel": "Ressources"
		},
		{
			"id": "LV-223",
			"name": "LV-223",
			"description": "En orbite autour de Calpamos, LV-223 est une lune déserte, très semblable à la Terre, avec des déserts tentaculaires et des vallées de montagne. Malheureusement, l'atmosphère y contient une concentration mortelle de dioxyde de carbone, ce qui la rend irrespirable pour les humains.\nEn outre, de redoutables tempêtes de silice s'y produisent souvent sans prévenir. Le peu de données dont on dispose sur LV-223 provient des transmissions confuses envoyées au Q.G. de Weyland Corp par l’USCSS Prometheus lors de sa mission durant les années 2090.\nDiverses rumeurs affirment que l'endroit abriterait un cimetière de vaisseaux spatiaux, et qu'il s'agirait d'un monde contaminé, couvert d'étranges ruines extraterrestres très anciennes et abritant plusieurs espèces animales extrêmement dangereuses.\nQuoi qu'il en soit, les équipages préfèrent éviter LV-223 et rechercher des cieux plus cléments et des endroits où l'herbe est plus verte…",
			"commonnamevalue": "",
			"systemvalue": "Zeta Reticuli",
			"sectorvalue": "Frontière",
			"affiliationvalue": "Sans propriétaire déclaré, Amériques-Unies",
			"affiliationlabel": "Affiliation",
			"classificationvalue": "Lune terrestre",
			"classificationlabel": "Classification",
			"climatevalue": "Violentes tempêtes de silice et atmosphère toxique, atmosphère respirable uniquement dans la région de la vallée du temple",
			"climatelabel": "Climat",
			"meanTemperaturevalue": "12°C",
			"meanTemperaturelabel": "Température moyenne",
			"terrainevalue": "Déserts, montagnes géantes, profondes vallées, végétation luxuriante uniquement dans la région de la vallée du temple",
			"terrainlabel": "Terrain",
			"coloniesvalue": "Aucune",
			"colonieslabel": "Colonies",
			"keyResourcesvalue": "Inexplorées",
			"keyResourceslabel": "Ressources"
		},
		{
			"id": "LV-426",
			"name": "LV-426",
			"description": "Avec une période de rotation de deux heures et une gravité égale à 0,86 fois celle de la Terre, la lune baptisée LV-426 est un rocher stérile et inhospitalier, perdu dans l'espace.\nDe jour, il y règne un crépuscule permanent, et les nuits y sont obscures et froides.\nRecensée par une sonde d'exploration française dans les années 2040, la lune est restée inexplorée durant tout le siècle suivant.\n\nEn 2122, l'USCSS Nostromo s'est posé sur LV-426 pour répondre à un appel de détresse mystérieux. Là, son équipage aurait rencontré une forme de vie extraterrestre hostile, ce qui aurait conduit à la destruction du vaisseau par l'un de ses membres.\nToutefois, une enquête en profondeur menée sur la lune dans les années 2130 n'a révélé aucune vie indigène, rendant sujettes à caution les rumeurs liées au Nostromo.\n\nLV-426 est sans doute mieux connu comme site d’installation de la colonie de Hadley's Hope, qui connut un sort funeste. Trente-cinq ans après l'incident du Nostromo, Weyland-Yutani et l'Administration Coloniale installèrent un processeur atmosphérique sur cette lune à rotation rapide avant d'entamer la procédure de terraformation.\nLes premiers colons la rebaptisèrent Achéron, et Hadley’s Hope y tint le coup pendant plus de vingt ans.\n\nLa colonie cessa de transmettre des rapports en juillet 2179, et l'on y envoya donc un contingent de Marines Coloniaux pour se renseigner sur la situation. Les événements qui suivirent débouchèrent sur l'anéantissement nucléaire de la colonie, ainsi que sur la mort des membres de l'unité de Marines et des 158 colons.\nOn ignore ce qui provoqua cette destruction : les rapports contradictoires parlent d'attaque d'un gouvernement rival, d'une espèce extraterrestre inconnue, d'un simple accident de réacteur…\n\nIl ne reste plus du site qu'un désert radioactif s'étendant sur plus de 700 km.\nPeu après l'incident, Weyland-Yutani et les Marines Coloniaux envoyèrent des équipes de sauvetage sur Achéron dans l'espoir d'y trouver des survivants.\nBien que la colonie et le processeur atmosphérique aient été vaporisés, il reste théoriquement possible que des colons réfugiés loin dans la chaîne d'Ilium aient pu s'y trouver protégés de l'explosion par les montagnes.\nLa compagnie a mis en place une station d'aide humanitaire en orbite, mais on n'a retrouvé aucun rescapé. La station Kathar est donc désormais une petite plateforme de recherche entretenue par un personnel modeste.",
			"commonnamevalue": "Acheron",
			"systemvalue": "Zeta Reticuli",
			"sectorvalue": "Tartare",
			"affiliationvalue": "Weyland-Yutani, Amériques-Unies",
			"affiliationlabel": "Affiliation",
			"classificationvalue": "Lune terrestre",
			"classificationlabel": "Classification",
			"climatevalue": "Atmosphère respirable, partiellement terraformée, tempêtes de vent à haute vélocité",
			"climatelabel": "Climat",
			"meanTemperaturevalue": "10°C (grâce à la terraformation)",
			"meanTemperaturelabel": "Température moyenne",
			"terrainevalue": "Roche volcanique stérile, montagnes",
			"terrainlabel": "Terrain",
			"coloniesvalue": "Station Odobenus en orbite, ancien site de Hadley’s Hope",
			"colonieslabel": "Colonies",
			"keyResourcesvalue": "Aucune identifiée",
			"keyResourceslabel": "Ressources"
		},
		{
			"id": "POL-5362.01",
			"name": "POL-5362.01",
			"description": "Aires est la planète des extrêmes, des déserts de méthane gelé aux mers de méthane déchaînées.\nLorsque son orbite l'éloigne du soleil, l'atmosphère gèle, et l'ensemble de la planète est pris dans la glace pendant une période de quatre mois à chaque rotation.\nIl y a cent ans, on détecta de la vie se déplaçant à la surface gelée d'Aires, et on lança une importante expédition scientifique pour enquêter. Malheureusement, on n'y a plus rien vu ni enregistré de la sorte depuis un siècle. Lorsque les membres de l'expédition de Weyland-Yutani furent rappelés, on ne laissa sur place qu'un équipage réduit au minimum pour surveiller la planète.\n\nÀ présent, une équipe de trente-deux scientifiques, administrateurs et officiers de sécurité vivent sur une plateforme de recherche et de surveillance flottante et submersible, bâtie à l'origine pour deux-cents personnes.\nIls disposent de deux sous-marins antiques, de quatre nacelles de recherche et d'un vaisseau de largage pour rejoindre l'orbite ou en revenir.\nL'affectation à la plateforme Aires est une voie de garage pour les scientifiques expérimentés de W-Y, mais un bon début pour les internes et les nouveaux employés.\nUne rumeur non confirmée prétend qu'à en croire la dernière transmission d'Aires, l'équipe avait localisé ce qui ressemble à des structures artificielles au fond de la mer de méthane, et que ses balises-capteurs flottantes avaient de nouveau enregistré du mouvement sous la glace…",
			"commonnamevalue": "Avant-poste Aires",
			"systemvalue": "POL-5362",
			"sectorvalue": "Neroid",
			"affiliationvalue": "Empire des Trois Mondes, Weyland-Yutani",
			"affiliationlabel": "Affiliation",
			"classificationvalue": "Planétoïde terrestre",
			"classificationlabel": "Classification",
			"climatevalue": "Atmosphère toxique, intenses averses de méthane",
			"climatelabel": "Climat",
			"meanTemperaturevalue": "–223°C",
			"meanTemperaturelabel": "Température moyenne",
			"terrainevalue": "Variable, du désert de méthane gelé lorsque la planète s'éloigne du soleil aux profonds océans de méthane quand elle s'en rapproche",
			"terrainlabel": "Terrain",
			"coloniesvalue": "Complexe de recherche",
			"colonieslabel": "Colonies",
			"keyResourcesvalue": "Méthane, ressources non recensées",
			"keyResourceslabel": "Ressources"
		},
		{
			"id": "Tanaka 5",
			"name": "Tanaka 5",
			"description": "Le système Tanaka abrite six mondes, dont quatre si proches de son étoile bleue qu'ils se limitent à des boules de magma brûlantes tournoyant dans l'espace.\nLa sixième  planète, sphère de méthane glacé, se trouve si loin du soleil que les explorateurs ne l'avaient même pas remarquée au premier abord.\nLa cinquième se situe à la limite de la zone habitable du système. Vous trouverez sa description ci-dessous.\r\n\r\nTANAKA 5: Aride planète désertique aux fréquentes tempêtes de sable, Tanaka 5 fut brièvement sondée en 2170, et l'on en déduisit qu'elle contenait probablement des réserves de thulium, de terbium, d'or et de manganèse.\nLe rapport reste à confirmer, ce qui n'a pas empêché certains prospecteurs d'entamer la reconnaissance sur place et d'y installer des habitations temporaires.\nOn y a découvert une espèce indigène, une sorte de scorpion de 2 à 3 mètres de long qui constitue à la fois un obstacle et un atout : bien que très dangereuse, la neurotoxine sécrétée par l'espèce s'est révélée très efficace contre plusieurs maladies, faisant de la planète une ressource pour les produits médicaux.\nOn parle également d'étranges ruines situées parmi les sources souterraines sous les déserts, mais rien n'est venu confirmer ces rumeurs.",
			"commonnamevalue": "",
			"systemvalue": "Tanaka",
			"sectorvalue": "Frontière",
			"affiliationvalue": "Non affiffiliée",
			"affiliationlabel": "Affiliation",
			"classificationvalue": "Planétoïde terrestre",
			"classificationlabel": "Classification",
			"climatevalue": "Atmosphère respirable, aride, journées chaudes et nuits froides, fréquentes tempêtes de sable",
			"climatelabel": "Climat",
			"meanTemperaturevalue": "45°C",
			"meanTemperaturelabel": "Température moyenne",
			"terrainevalue": "Déserts tentaculaires et canyons",
			"terrainlabel": "Terrain",
			"coloniesvalue": "Aucune",
			"colonieslabel": "Colonies",
			"keyResourcesvalue": "Vaccin, potentiellement métaux",
			"keyResourceslabel": "Ressources"
		},
		{
			"id": "Thedus",
			"name": "Thedus",
			"description": "Située hors de la Bordure Extérieure, Thedus fut à l'origine prise par erreur pour une petite géante gazeuse à cause de son épaisse atmosphère nuageuse.\nIl s'agissait en réalité d'un grand monde de type terrestre riche en métaux lourds. Les minerais naturels y abondent, ce dont Weyland-Yutani a tiré profit pendant plus d'un siècle au moyen de vastes mines. On a exploité à ciel ouvert d'immenses régions de la planète désormais striées de profondes excavations et de véritables canyons.\nUne grande partie des matériaux exportés depuis les limites de la Frontière transite par Thedus ou la station Anchorpoint avant de se diriger vers le Voile Extérieur ou les systèmes du Noyau.\n\nAprès un grave accident environnemental en 2109, certaines zones de la planète devinrent inhabitables pendant de nombreuses décennies.\nUne révolte de mineurs contre des conditions de vie médiocres conduisit au déploiement du transport de troupes UAS Archangel sur la planète pour maintenir la paix.\nAprès une série d'événements non révélés au public, l'Archangel s'écrasa, détruisant l'une des usines de traitement atmosphérique de la planète et provoquant la mort de plus de 15 000 civils et Marines.\nDans les années 2180, la reprise de la terraformation a réparé une grande partie des dégâts causés à la planète, mais l'atmosphère de Thedus demeure froide.\n\nThedus était le dernier port d'attache du véhicule remorqueur Nostromo avant sa disparition en 2122.",
			"commonnamevalue": "",
			"systemvalue": "Epsilon Reticuli",
			"sectorvalue": "Frontière",
			"affiliationvalue": "Weyland-Yutani, Empire des Trois Mondes, Amériques-Unies",
			"affiliationlabel": "Affiliation",
			"classificationvalue": "Planétoïde terrestre",
			"classificationlabel": "Classification",
			"climatevalue": "Atmosphère froide et mince, terraformé",
			"climatelabel": "Climat",
			"meanTemperaturevalue": "8°C",
			"meanTemperaturelabel": "Température moyenne",
			"terrainevalue": "Montagnes et canyons",
			"terrainlabel": "Terrain",
			"coloniesvalue": "Trois",
			"colonieslabel": "Colonies",
			"keyResourcesvalue": "Yttrium, niobium, hélium-3, autres métaux terrestres rares",
			"keyResourceslabel": "Ressources"
		},
		{
			"id": "Third Base",
			"name": "Troisième Base",
			"description": "Complexe de recherche top secrète de l'USCMC installée sur une lune anonyme, la Troisième base se situe à une courte distance de saut du secteur de Nouvel Éden, mais aussi du système Sol. Il s'agit d'un complexe pressurisé, conçu pour effectuer des recherches avancées en armement et disposant d'un vaste hangar capable d'accueillir plusieurs grands transports de troupes militaires et cargos, ainsi que d'un dépôt de véhicules bien fourni et d'un considérable arsenal.\n\nLes Marines Coloniaux en faction sur place sont formés et bien positionnés pour prendre l'initiative d'un assaut sur n'importe quel monde des CIN en cas de besoin.\nMalgré son statut secret, la Troisième base voisine avec une colonie civile et une usine de traitement atmosphérique sur la lune.\nLa surface est criblée de cavernes et d'anciens réservoirs de glace, qui servirent d'habitat temporaire pendant la construction de la colonie.\n\nCelle-ci est coupée du reste de la galaxie : toutes les communications passent par des canaux militaires et sont soumises à une approbation préalable, avec un délai de transmission qui permet de les censurer si nécessaire.\nToutes les provisions sont importées exclusivement par cargo militaire.",
			"commonnamevalue": "",
			"systemvalue": "TOP SECRET",
			"sectorvalue": "Systèmes du Noyau,",
			"affiliationvalue": "Amériques-Unies, USCMC",
			"affiliationlabel": "Affiliation",
			"classificationvalue": "Lune terrestre",
			"classificationlabel": "Classification",
			"climatevalue": "Atmosphère respirable, averses torrentielles, orages électriques",
			"climatelabel": "Climat",
			"meanTemperaturevalue": "25°C (tempérée)",
			"meanTemperaturelabel": "Température moyenne",
			"terrainevalue": "Désert stérile",
			"terrainlabel": "Terrain",
			"coloniesvalue": "Une, plus une base militaire.\r\n168 colons, 500 Marines, 48 scientififiques militaires",
			"colonieslabel": "Colonies",
			"keyResourcesvalue": "Base militaire, recherche",
			"keyResourceslabel": "Ressources"
		},
		{
			"id": "Torin Prime",
			"name": "Torin Prime",
			"description": "Bien que l'événement date de près de huit décennies, Torin Prime ne s'est jamais remise de sa tentative de sécession (cf. Gouvernements et grandes compagnies).\nDiverses sanctions freinent à présent la prospérité de la colonie. Le gouvernement local n'a pas le droit de s'armer et doit compter sur la protection directe du CAAU. Les autochtones ont l'impression de vivre dans un État policier.\nLes rapports d'espionnage laissent entendre que la faction rebelle J'Har reprend de la vigueur et qu'elle s'organiserait, gonflant ses effectifs dans la perspective d'un nouveau coup d'État. Cette fois, ce ne serait pas que Torin Prime qui serait visé, mais tout le secteur Tartare.\nLes espions des AU pensent que cette nouvelle révolte sera discrètement appuyée par l'UPP, et la flotte de Liberty Echo s'apprête à réagir en conséquence.",
			"commonnamevalue": "",
			"systemvalue": "GJ-229 Torin",
			"sectorvalue": "Tartare",
			"affiliationvalue": "Amériques-Unies",
			"affiliationlabel": "Affiliation",
			"classificationvalue": "Planétoïde terrestre",
			"classificationlabel": "Classification",
			"climatevalue": "Atmosphère respirable, semi-aride, été pluvieux et hivers secs",
			"climatelabel": "Climat",
			"meanTemperaturevalue": "18°C",
			"meanTemperaturelabel": "Température moyenne",
			"terrainevalue": "Prairies montagneuses et hauts sommets",
			"terrainlabel": "Terrain",
			"coloniesvalue": "Trois",
			"colonieslabel": "Colonies",
			"keyResourcesvalue": "Chrome, titane, osmium, palladium, iridium, métaux lourds",
			"keyResourceslabel": "Ressources"
		},
		{
			"id": "Volcus",
			"name": "Volcus",
			"description": "VOLCUS (Collecteur Orbital V-23 et Lune Etna): \r\nGéologiquement parlant, Volcus est une planète jeune en phrase de refroidissement après sa formation. Elle présente donc une surface aux conditions infernales : soufre, magma, gaz brûlants.\nAucune colonie n'en occupe la surface, mais des stations énergétiques flottent sur les mers de magma, puisant l'énergie géothermique pour la transmettre au collecteur orbital V-23 dans sa station de relais.\nUne fois amassée là, l'énergie est expédiée par faisceau à la colonie Toile d'Araignée, sur la lune sans atmosphère de Volcus, Etna. Et comme le collecteur génère un surplus d'énergie, on produit sur place des batteries d'énergie à haut rendement que l'on exporte ensuite dans toutes les CIN.\nLe réseau de dômes d'habitation répartis sur Etna abrite près de 200 000 colons, tandis que V-23 est occupée par une centaine d'ingénieurs logeant sur place pour en assurer l’entretien.",
			"commonnamevalue": "Collecteur Orbital V-23",
			"systemvalue": "Heske 337",
			"sectorvalue": "Nouvel Éden",
			"affiliationvalue": "Colonies Indépendantes du Noyau, Consortium Spatial Central",
			"affiliationlabel": "Affiliation",
			"classificationvalue": "Planète/lune terrestre",
			"classificationlabel": "Classification",
			"climatevalue": "Atmosphère corrosive, nuées pyroclastiques et nuages de cendres, chaleur infernale/ vide d'air",
			"climatelabel": "Climat",
			"meanTemperaturevalue": "400°C sur Volcus/-173°C sur Etna",
			"meanTemperaturelabel": "Température moyenne",
			"terrainevalue": "Mers magmatiques et îles volcaniques / lune stérile",
			"terrainlabel": "Terrain",
			"coloniesvalue": "Colonie Toile d'Araignée (sur Etna)",
			"colonieslabel": "Colonies",
			"keyResourcesvalue": "Énergie géothermique, bauxite, or, diamants, métaux terrestres de base et rares",
			"keyResourceslabel": "Ressources"
		}
	]
}